#
# There is insufficient memory for the Java Runtime Environment to continue.
# Native memory allocation (mmap) failed to map 77070336 bytes for committing reserved memory.
# Possible reasons:
#   The system is out of physical RAM or swap space
#   In 32 bit mode, the process size limit was hit
# Possible solutions:
#   Reduce memory load on the system
#   Increase physical memory or swap space
#   Check if swap backing store is full
#   Use 64 bit Java on a 64 bit OS
#   Decrease Java heap size (-Xmx/-Xms)
#   Decrease number of Java threads
#   Decrease Java thread stack sizes (-Xss)
#   Set larger code cache with -XX:ReservedCodeCacheSize=
# This output file may be truncated or incomplete.
#
#  Out of Memory Error (os_linux.cpp:2640), pid=14542, tid=0x00007f86788f8700
#
# JRE version: Java(TM) SE Runtime Environment (8.0_171-b11) (build 1.8.0_171-b11)
# Java VM: Java HotSpot(TM) 64-Bit Server VM (25.171-b11 mixed mode linux-amd64 compressed oops)
# Failed to write core dump. Core dumps have been disabled. To enable core dumping, try "ulimit -c unlimited" before starting Java again
#

---------------  T H R E A D  ---------------

Current thread (0x00007f8690143000):  VMThread [stack: 0x00007f86787f8000,0x00007f86788f9000] [id=14550]

Stack: [0x00007f86787f8000,0x00007f86788f9000],  sp=0x00007f86788f7220,  free space=1020k
Native frames: (J=compiled Java code, j=interpreted, Vv=VM code, C=native code)
V  [libjvm.so+0xacfffa]  VMError::report_and_die()+0x2ba
V  [libjvm.so+0x5005cb]  report_vm_out_of_memory(char const*, int, unsigned long, VMErrorType, char const*)+0x8b
V  [libjvm.so+0x92dd93]  os::Linux::commit_memory_impl(char*, unsigned long, bool)+0x123
V  [libjvm.so+0x92dfb9]  os::pd_commit_memory(char*, unsigned long, unsigned long, bool)+0x29
V  [libjvm.so+0x92527a]  os::commit_memory(char*, unsigned long, unsigned long, bool)+0x2a
V  [libjvm.so+0x99b223]  PSVirtualSpace::expand_by(unsigned long)+0x53
V  [libjvm.so+0x99c628]  PSYoungGen::resize_generation(unsigned long, unsigned long)+0xf8
V  [libjvm.so+0x99b782]  PSYoungGen::resize(unsigned long, unsigned long)+0x22
V  [libjvm.so+0x998a5b]  PSScavenge::invoke_no_policy()+0xf3b
V  [libjvm.so+0x9991e1]  PSScavenge::invoke()+0x41
V  [libjvm.so+0x94fcb0]  ParallelScavengeHeap::failed_mem_allocate(unsigned long)+0x70
V  [libjvm.so+0xad1a77]  VM_ParallelGCFailedAllocation::doit()+0x97
V  [libjvm.so+0xad9595]  VM_Operation::evaluate()+0x55
V  [libjvm.so+0xad795a]  VMThread::evaluate_operation(VM_Operation*)+0xba
V  [libjvm.so+0xad7cde]  VMThread::loop()+0x1ce
V  [libjvm.so+0xad8150]  VMThread::run()+0x70
V  [libjvm.so+0x92e0f8]  java_start(Thread*)+0x108

VM_Operation (0x00007f86990d8b00): ParallelGCFailedAllocation, mode: safepoint, requested by thread 0x00007f869000e000


---------------  P R O C E S S  ---------------

Java Threads: ( => current thread )
  0x00007f8690825000 JavaThread "process reaper" daemon [_thread_blocked, id=14565, stack(0x00007f867039b000,0x00007f86703d4000)]
  0x00007f86901b6800 JavaThread "Service Thread" daemon [_thread_blocked, id=14562, stack(0x00007f8673bfc000,0x00007f8673cfd000)]
  0x00007f8690199000 JavaThread "C1 CompilerThread2" daemon [_thread_blocked, id=14561, stack(0x00007f8673cfd000,0x00007f8673dfe000)]
  0x00007f8690197000 JavaThread "C2 CompilerThread1" daemon [_thread_blocked, id=14560, stack(0x00007f8673dfe000,0x00007f8673eff000)]
  0x00007f8690194800 JavaThread "C2 CompilerThread0" daemon [_thread_blocked, id=14559, stack(0x00007f8673eff000,0x00007f8674000000)]
  0x00007f8690192000 JavaThread "JDWP Event Helper Thread" daemon [_thread_blocked, id=14558, stack(0x00007f86780ef000,0x00007f86781f0000)]
  0x00007f869018d800 JavaThread "JDWP Transport Listener: dt_socket" daemon [_thread_in_native, id=14557, stack(0x00007f86781f0000,0x00007f86782f1000)]
  0x00007f8690181000 JavaThread "Signal Dispatcher" daemon [_thread_blocked, id=14556, stack(0x00007f86784f5000,0x00007f86785f6000)]
  0x00007f869014f000 JavaThread "Finalizer" daemon [_thread_blocked, id=14552, stack(0x00007f86785f6000,0x00007f86786f7000)]
  0x00007f869014a800 JavaThread "Reference Handler" daemon [_thread_blocked, id=14551, stack(0x00007f86786f7000,0x00007f86787f8000)]
  0x00007f869000e000 JavaThread "main" [_thread_blocked, id=14545, stack(0x00007f8698fe2000,0x00007f86990e3000)]

Other Threads:
=>0x00007f8690143000 VMThread [stack: 0x00007f86787f8000,0x00007f86788f9000] [id=14550]
  0x00007f86901bb800 WatcherThread [stack: 0x00007f8673afb000,0x00007f8673bfc000] [id=14563]

VM state:at safepoint (normal execution)

VM Mutex/Monitor currently owned by a thread:  ([mutex/lock_event])
[0x00007f869000a260] Threads_lock - owner thread: 0x00007f8690143000
[0x00007f869000a760] Heap_lock - owner thread: 0x00007f869000e000

Heap:
 PSYoungGen      total 115712K, used 10742K [0x00000000e0000000, 0x00000000e7b80000, 0x0000000100000000)
  eden space 104960K, 0% used [0x00000000e0000000,0x00000000e0000000,0x00000000e6680000)
  from space 10752K, 99% used [0x00000000e7100000,0x00000000e7b7d8a0,0x00000000e7b80000)
  to   space 9728K, 0% used [0x00000000e6680000,0x00000000e6680000,0x00000000e7000000)
 ParOldGen       total 85504K, used 40570K [0x00000000a0000000, 0x00000000a5380000, 0x00000000e0000000)
  object space 85504K, 47% used [0x00000000a0000000,0x00000000a279ea80,0x00000000a5380000)
 Metaspace       used 47805K, capacity 48268K, committed 48384K, reserved 1089536K
  class space    used 9073K, capacity 9194K, committed 9216K, reserved 1048576K

Card table byte_map: [0x00007f8694c76000,0x00007f8694f77000] byte_map_base: 0x00007f8694776000

Marking Bits: (ParMarkBitMap*) 0x00007f86984ac280
 Begin Bits: [0x00007f8679000000, 0x00007f867a800000)
 End Bits:   [0x00007f867a800000, 0x00007f867c000000)

Polling page: 0x00007f86990fe000

CodeCache: size=245760Kb used=14819Kb max_used=14827Kb free=230940Kb
 bounds [0x00007f8681000000, 0x00007f8681e90000, 0x00007f8690000000]
 total_blobs=5274 nmethods=4828 adapters=364
 compilation: enabled

Compilation events (10 events):
Event: 21.643 Thread 0x00007f8690194800 nmethod 5178 0x00007f8681e7b1d0 code [0x00007f8681e7b360, 0x00007f8681e7b848]
Event: 21.643 Thread 0x00007f8690194800 5128       4       scala.reflect.internal.Symbols$Symbol::originalInfo (36 bytes)
Event: 21.645 Thread 0x00007f8690194800 nmethod 5128 0x00007f8681e87850 code [0x00007f8681e879a0, 0x00007f8681e87a58]
Event: 21.645 Thread 0x00007f8690194800 5105       4       scala.reflect.internal.Symbols$ClassSymbol$$anonfun$companionModule0$1::apply (12 bytes)
Event: 21.647 Thread 0x00007f8690199000 5181       3       scala.reflect.internal.SymbolTable::promoteTermNamesAsNecessary (6 bytes)
Event: 21.648 Thread 0x00007f8690199000 nmethod 5181 0x00007f8681e7acd0 code [0x00007f8681e7ae40, 0x00007f8681e7b0c8]
Event: 21.648 Thread 0x00007f8690199000 5182       3       scala.reflect.internal.Names$class::promoteTermNamesAsNecessary (5 bytes)
Event: 21.648 Thread 0x00007f8690199000 nmethod 5182 0x00007f8681e792d0 code [0x00007f8681e79440, 0x00007f8681e79648]
Event: 21.649 Thread 0x00007f8690199000 5183       3       scala.reflect.internal.pickling.PickleBuffer::<init> (25 bytes)
Event: 21.649 Thread 0x00007f8690199000 nmethod 5183 0x00007f8681e78e90 code [0x00007f8681e79000, 0x00007f8681e791f0]

GC Heap History (10 events):
Event: 9.060 GC heap after
Heap after GC invocations=9 (full 2):
 PSYoungGen      total 79872K, used 7987K [0x00000000e0000000, 0x00000000e7980000, 0x0000000100000000)
  eden space 70656K, 0% used [0x00000000e0000000,0x00000000e0000000,0x00000000e4500000)
  from space 9216K, 86% used [0x00000000e4500000,0x00000000e4cccdd8,0x00000000e4e00000)
  to   space 9728K, 0% used [0x00000000e7000000,0x00000000e7000000,0x00000000e7980000)
 ParOldGen       total 85504K, used 7284K [0x00000000a0000000, 0x00000000a5380000, 0x00000000e0000000)
  object space 85504K, 8% used [0x00000000a0000000,0x00000000a071d2b8,0x00000000a5380000)
 Metaspace       used 40631K, capacity 41074K, committed 41344K, reserved 1083392K
  class space    used 7628K, capacity 7781K, committed 7808K, reserved 1048576K
}
Event: 9.992 GC heap before
{Heap before GC invocations=10 (full 2):
 PSYoungGen      total 79872K, used 39589K [0x00000000e0000000, 0x00000000e7980000, 0x0000000100000000)
  eden space 70656K, 44% used [0x00000000e0000000,0x00000000e1edc770,0x00000000e4500000)
  from space 9216K, 86% used [0x00000000e4500000,0x00000000e4cccdd8,0x00000000e4e00000)
  to   space 9728K, 0% used [0x00000000e7000000,0x00000000e7000000,0x00000000e7980000)
 ParOldGen       total 85504K, used 7284K [0x00000000a0000000, 0x00000000a5380000, 0x00000000e0000000)
  object space 85504K, 8% used [0x00000000a0000000,0x00000000a071d2b8,0x00000000a5380000)
 Metaspace       used 44765K, capacity 45176K, committed 45312K, reserved 1085440K
  class space    used 8481K, capacity 8614K, committed 8704K, reserved 1048576K
Event: 10.005 GC heap after
Heap after GC invocations=10 (full 2):
 PSYoungGen      total 114688K, used 7307K [0x00000000e0000000, 0x00000000e7980000, 0x0000000100000000)
  eden space 104960K, 0% used [0x00000000e0000000,0x00000000e0000000,0x00000000e6680000)
  from space 9728K, 75% used [0x00000000e7000000,0x00000000e7722ea8,0x00000000e7980000)
  to   space 9728K, 0% used [0x00000000e6680000,0x00000000e6680000,0x00000000e7000000)
 ParOldGen       total 85504K, used 7292K [0x00000000a0000000, 0x00000000a5380000, 0x00000000e0000000)
  object space 85504K, 8% used [0x00000000a0000000,0x00000000a071f2b8,0x00000000a5380000)
 Metaspace       used 44765K, capacity 45176K, committed 45312K, reserved 1085440K
  class space    used 8481K, capacity 8614K, committed 8704K, reserved 1048576K
}
Event: 10.005 GC heap before
{Heap before GC invocations=11 (full 3):
 PSYoungGen      total 114688K, used 7307K [0x00000000e0000000, 0x00000000e7980000, 0x0000000100000000)
  eden space 104960K, 0% used [0x00000000e0000000,0x00000000e0000000,0x00000000e6680000)
  from space 9728K, 75% used [0x00000000e7000000,0x00000000e7722ea8,0x00000000e7980000)
  to   space 9728K, 0% used [0x00000000e6680000,0x00000000e6680000,0x00000000e7000000)
 ParOldGen       total 85504K, used 7292K [0x00000000a0000000, 0x00000000a5380000, 0x00000000e0000000)
  object space 85504K, 8% used [0x00000000a0000000,0x00000000a071f2b8,0x00000000a5380000)
 Metaspace       used 44765K, capacity 45176K, committed 45312K, reserved 1085440K
  class space    used 8481K, capacity 8614K, committed 8704K, reserved 1048576K
Event: 10.167 GC heap after
Heap after GC invocations=11 (full 3):
 PSYoungGen      total 114688K, used 0K [0x00000000e0000000, 0x00000000e7980000, 0x0000000100000000)
  eden space 104960K, 0% used [0x00000000e0000000,0x00000000e0000000,0x00000000e6680000)
  from space 9728K, 0% used [0x00000000e7000000,0x00000000e7000000,0x00000000e7980000)
  to   space 9728K, 0% used [0x00000000e6680000,0x00000000e6680000,0x00000000e7000000)
 ParOldGen       total 85504K, used 13118K [0x00000000a0000000, 0x00000000a5380000, 0x00000000e0000000)
  object space 85504K, 15% used [0x00000000a0000000,0x00000000a0ccfa40,0x00000000a5380000)
 Metaspace       used 44765K, capacity 45176K, committed 45312K, reserved 1085440K
  class space    used 8481K, capacity 8614K, committed 8704K, reserved 1048576K
}
Event: 10.199 GC heap before
{Heap before GC invocations=12 (full 3):
 PSYoungGen      total 114688K, used 1802K [0x00000000e0000000, 0x00000000e7980000, 0x0000000100000000)
  eden space 104960K, 1% used [0x00000000e0000000,0x00000000e01c2a28,0x00000000e6680000)
  from space 9728K, 0% used [0x00000000e7000000,0x00000000e7000000,0x00000000e7980000)
  to   space 9728K, 0% used [0x00000000e6680000,0x00000000e6680000,0x00000000e7000000)
 ParOldGen       total 85504K, used 13118K [0x00000000a0000000, 0x00000000a5380000, 0x00000000e0000000)
  object space 85504K, 15% used [0x00000000a0000000,0x00000000a0ccfa40,0x00000000a5380000)
 Metaspace       used 44769K, capacity 45176K, committed 45312K, reserved 1085440K
  class space    used 8482K, capacity 8614K, committed 8704K, reserved 1048576K
Event: 10.201 GC heap after
Heap after GC invocations=12 (full 3):
 PSYoungGen      total 114688K, used 64K [0x00000000e0000000, 0x00000000e7b80000, 0x0000000100000000)
  eden space 104960K, 0% used [0x00000000e0000000,0x00000000e0000000,0x00000000e6680000)
  from space 9728K, 0% used [0x00000000e6680000,0x00000000e6690000,0x00000000e7000000)
  to   space 10752K, 0% used [0x00000000e7100000,0x00000000e7100000,0x00000000e7b80000)
 ParOldGen       total 85504K, used 13118K [0x00000000a0000000, 0x00000000a5380000, 0x00000000e0000000)
  object space 85504K, 15% used [0x00000000a0000000,0x00000000a0ccfa40,0x00000000a5380000)
 Metaspace       used 44769K, capacity 45176K, committed 45312K, reserved 1085440K
  class space    used 8482K, capacity 8614K, committed 8704K, reserved 1048576K
}
Event: 10.201 GC heap before
{Heap before GC invocations=13 (full 4):
 PSYoungGen      total 114688K, used 64K [0x00000000e0000000, 0x00000000e7b80000, 0x0000000100000000)
  eden space 104960K, 0% used [0x00000000e0000000,0x00000000e0000000,0x00000000e6680000)
  from space 9728K, 0% used [0x00000000e6680000,0x00000000e6690000,0x00000000e7000000)
  to   space 10752K, 0% used [0x00000000e7100000,0x00000000e7100000,0x00000000e7b80000)
 ParOldGen       total 85504K, used 13118K [0x00000000a0000000, 0x00000000a5380000, 0x00000000e0000000)
  object space 85504K, 15% used [0x00000000a0000000,0x00000000a0ccfa40,0x00000000a5380000)
 Metaspace       used 44769K, capacity 45176K, committed 45312K, reserved 1085440K
  class space    used 8482K, capacity 8614K, committed 8704K, reserved 1048576K
Event: 10.279 GC heap after
Heap after GC invocations=13 (full 4):
 PSYoungGen      total 114688K, used 0K [0x00000000e0000000, 0x00000000e7b80000, 0x0000000100000000)
  eden space 104960K, 0% used [0x00000000e0000000,0x00000000e0000000,0x00000000e6680000)
  from space 9728K, 0% used [0x00000000e6680000,0x00000000e6680000,0x00000000e7000000)
  to   space 10752K, 0% used [0x00000000e7100000,0x00000000e7100000,0x00000000e7b80000)
 ParOldGen       total 85504K, used 10666K [0x00000000a0000000, 0x00000000a5380000, 0x00000000e0000000)
  object space 85504K, 12% used [0x00000000a0000000,0x00000000a0a6aa80,0x00000000a5380000)
 Metaspace       used 44769K, capacity 45176K, committed 45312K, reserved 1085440K
  class space    used 8482K, capacity 8614K, committed 8704K, reserved 1048576K
}
Event: 21.651 GC heap before
{Heap before GC invocations=14 (full 4):
 PSYoungGen      total 114688K, used 104960K [0x00000000e0000000, 0x00000000e7b80000, 0x0000000100000000)
  eden space 104960K, 100% used [0x00000000e0000000,0x00000000e6680000,0x00000000e6680000)
  from space 9728K, 0% used [0x00000000e6680000,0x00000000e6680000,0x00000000e7000000)
  to   space 10752K, 0% used [0x00000000e7100000,0x00000000e7100000,0x00000000e7b80000)
 ParOldGen       total 85504K, used 10666K [0x00000000a0000000, 0x00000000a5380000, 0x00000000e0000000)
  object space 85504K, 12% used [0x00000000a0000000,0x00000000a0a6aa80,0x00000000a5380000)
 Metaspace       used 47805K, capacity 48268K, committed 48384K, reserved 1089536K
  class space    used 9073K, capacity 9194K, committed 9216K, reserved 1048576K

Deoptimization events (10 events):
Event: 12.547 Thread 0x00007f869000e000 Uncommon trap: reason=class_check action=maybe_recompile pc=0x00007f8681bae57c method=scala.reflect.internal.Symbols$Symbol.sourceFileOnly(Lscala/reflect/io/AbstractFile;)Lscala/reflect/io/AbstractFile; @ 5
Event: 13.181 Thread 0x00007f869000e000 Uncommon trap: reason=array_check action=maybe_recompile pc=0x00007f8681356e78 method=scala.runtime.ScalaRunTime$.array_update(Ljava/lang/Object;ILjava/lang/Object;)V @ 17
Event: 13.181 Thread 0x00007f869000e000 Uncommon trap: reason=array_check action=maybe_recompile pc=0x00007f8681356e78 method=scala.runtime.ScalaRunTime$.array_update(Ljava/lang/Object;ILjava/lang/Object;)V @ 17
Event: 13.181 Thread 0x00007f869000e000 Uncommon trap: reason=array_check action=maybe_recompile pc=0x00007f8681356e78 method=scala.runtime.ScalaRunTime$.array_update(Ljava/lang/Object;ILjava/lang/Object;)V @ 17
Event: 13.181 Thread 0x00007f869000e000 Uncommon trap: reason=array_check action=maybe_recompile pc=0x00007f8681356e78 method=scala.runtime.ScalaRunTime$.array_update(Ljava/lang/Object;ILjava/lang/Object;)V @ 17
Event: 13.448 Thread 0x00007f869000e000 Uncommon trap: reason=class_check action=maybe_recompile pc=0x00007f8681bae57c method=scala.reflect.internal.Symbols$Symbol.sourceFileOnly(Lscala/reflect/io/AbstractFile;)Lscala/reflect/io/AbstractFile; @ 5
Event: 13.448 Thread 0x00007f869000e000 Uncommon trap: reason=class_check action=maybe_recompile pc=0x00007f8681bae57c method=scala.reflect.internal.Symbols$Symbol.sourceFileOnly(Lscala/reflect/io/AbstractFile;)Lscala/reflect/io/AbstractFile; @ 5
Event: 13.507 Thread 0x00007f869000e000 Uncommon trap: reason=unstable_if action=reinterpret pc=0x00007f8681410ee0 method=scala.collection.mutable.FlatHashTable$class.addEntry(Lscala/collection/mutable/FlatHashTable;Ljava/lang/Object;)Z @ 80
Event: 14.211 Thread 0x00007f869000e000 Uncommon trap: reason=unstable_if action=reinterpret pc=0x00007f8681bbf034 method=scala.reflect.internal.pickling.UnPickler$Scan.readSymbol()Lscala/reflect/internal/Symbols$Symbol; @ 504
Event: 21.000 Thread 0x00007f869000e000 Uncommon trap: reason=unstable_if action=reinterpret pc=0x00007f8681c0f2fc method=scala.reflect.internal.pickling.UnPickler$Scan.finishSym$1(Lscala/reflect/internal/Symbols$Symbol;ILscala/runtime/IntRef;Lscala/reflect/internal/Symbols$Symbol;)Lscala/refle

Classes redefined (0 events):
No events

Internal exceptions (10 events):
Event: 5.297 Thread 0x00007f869000e000 Exception <a 'java/lang/ArrayIndexOutOfBoundsException'> (0x00000000e0aa5820) thrown at [/HUDSON/workspace/8-2-build-linux-amd64/jdk8u171/10807/hotspot/src/share/vm/runtime/sharedRuntime.cpp, line 605]
Event: 5.314 Thread 0x00007f869000e000 Exception <a 'java/lang/ArrayIndexOutOfBoundsException'> (0x00000000e0acecc0) thrown at [/HUDSON/workspace/8-2-build-linux-amd64/jdk8u171/10807/hotspot/src/share/vm/runtime/sharedRuntime.cpp, line 605]
Event: 6.912 Thread 0x00007f869000e000 Exception <a 'java/lang/ClassNotFoundException': java/net> (0x00000000e031b768) thrown at [/HUDSON/workspace/8-2-build-linux-amd64/jdk8u171/10807/hotspot/src/share/vm/classfile/systemDictionary.cpp, line 210]
Event: 6.912 Thread 0x00007f869000e000 Exception <a 'java/lang/ClassNotFoundException': java/net/package> (0x00000000e031c908) thrown at [/HUDSON/workspace/8-2-build-linux-amd64/jdk8u171/10807/hotspot/src/share/vm/classfile/systemDictionary.cpp, line 210]
Event: 9.344 Thread 0x00007f869236a800 Exception <a 'java/io/FileNotFoundException'> (0x00000000e0ac4c48) thrown at [/HUDSON/workspace/8-2-build-linux-amd64/jdk8u171/10807/hotspot/src/share/vm/prims/jni.cpp, line 709]
Event: 10.321 Thread 0x00007f869000e000 Exception <a 'java/security/PrivilegedActionException'> (0x00000000e00881e8) thrown at [/HUDSON/workspace/8-2-build-linux-amd64/jdk8u171/10807/hotspot/src/share/vm/prims/jvm.cpp, line 1435]
Event: 10.321 Thread 0x00007f869000e000 Exception <a 'java/security/PrivilegedActionException'> (0x00000000e00889b0) thrown at [/HUDSON/workspace/8-2-build-linux-amd64/jdk8u171/10807/hotspot/src/share/vm/prims/jvm.cpp, line 1435]
Event: 10.628 Thread 0x00007f869000e000 Exception <a 'java/lang/ArrayIndexOutOfBoundsException': 22> (0x00000000e12991c0) thrown at [/HUDSON/workspace/8-2-build-linux-amd64/jdk8u171/10807/hotspot/src/share/vm/interpreter/interpreterRuntime.cpp, line 366]
Event: 10.665 Thread 0x00007f869000e000 Exception <a 'java/lang/ArrayIndexOutOfBoundsException'> (0x00000000e13aafc8) thrown at [/HUDSON/workspace/8-2-build-linux-amd64/jdk8u171/10807/hotspot/src/share/vm/runtime/sharedRuntime.cpp, line 605]
Event: 10.671 Thread 0x00007f869000e000 Exception <a 'java/lang/ArrayIndexOutOfBoundsException'> (0x00000000e13cc598) thrown at [/HUDSON/workspace/8-2-build-linux-amd64/jdk8u171/10807/hotspot/src/share/vm/runtime/sharedRuntime.cpp, line 605]

Events (10 events):
Event: 21.628 Thread 0x00007f869000e000 DEOPT UNPACKING pc=0x00007f8681047784 sp=0x00007f86990d86a0 mode 1
Event: 21.629 Thread 0x00007f869000e000 DEOPT PACKING pc=0x00007f868130d4bc sp=0x00007f86990d8c50
Event: 21.629 Thread 0x00007f869000e000 DEOPT UNPACKING pc=0x00007f8681047784 sp=0x00007f86990d8990 mode 1
Event: 21.629 Thread 0x00007f869000e000 DEOPT PACKING pc=0x00007f868130d4bc sp=0x00007f86990d8ce0
Event: 21.629 Thread 0x00007f869000e000 DEOPT UNPACKING pc=0x00007f8681047784 sp=0x00007f86990d8a20 mode 1
Event: 21.630 Thread 0x00007f869000e000 DEOPT PACKING pc=0x00007f868130d4bc sp=0x00007f86990d7be0
Event: 21.630 Thread 0x00007f869000e000 DEOPT UNPACKING pc=0x00007f8681047784 sp=0x00007f86990d7920 mode 1
Event: 21.630 Thread 0x00007f869000e000 DEOPT PACKING pc=0x00007f868130d4bc sp=0x00007f86990d7c70
Event: 21.630 Thread 0x00007f869000e000 DEOPT UNPACKING pc=0x00007f8681047784 sp=0x00007f86990d79b0 mode 1
Event: 21.650 Executing VM operation: ParallelGCFailedAllocation


Dynamic libraries:
00400000-00401000 r-xp 00000000 08:03 1050327                            /usr/lib/jvm/java-8-oracle/bin/java
00600000-00601000 rw-p 00000000 08:03 1050327                            /usr/lib/jvm/java-8-oracle/bin/java
019f3000-01a14000 rw-p 00000000 00:00 0                                  [heap]
a0000000-a5380000 rw-p 00000000 00:00 0 
a5380000-e0000000 ---p 00000000 00:00 0 
e0000000-e7b80000 rw-p 00000000 00:00 0 
ec500000-100000000 ---p 00000000 00:00 0 
100000000-100900000 rw-p 00000000 00:00 0 
100900000-140000000 ---p 00000000 00:00 0 
7f8618000000-7f8618033000 rw-p 00000000 00:00 0 
7f8618033000-7f861c000000 ---p 00000000 00:00 0 
7f861c000000-7f861c021000 rw-p 00000000 00:00 0 
7f861c021000-7f8620000000 ---p 00000000 00:00 0 
7f8620000000-7f862002a000 rw-p 00000000 00:00 0 
7f862002a000-7f8624000000 ---p 00000000 00:00 0 
7f8624000000-7f8624021000 rw-p 00000000 00:00 0 
7f8624021000-7f8628000000 ---p 00000000 00:00 0 
7f8628000000-7f86280fe000 rw-p 00000000 00:00 0 
7f86280fe000-7f862c000000 ---p 00000000 00:00 0 
7f862c000000-7f862c021000 rw-p 00000000 00:00 0 
7f862c021000-7f8630000000 ---p 00000000 00:00 0 
7f8630000000-7f86300b9000 rw-p 00000000 00:00 0 
7f86300b9000-7f8634000000 ---p 00000000 00:00 0 
7f8634000000-7f8634021000 rw-p 00000000 00:00 0 
7f8634021000-7f8638000000 ---p 00000000 00:00 0 
7f8639cc5000-7f8639d05000 rw-p 00000000 00:00 0 
7f8639d05000-7f8639ec5000 ---p 00000000 00:00 0 
7f8639ec5000-7f8639f5a000 r--s 0110b000 08:03 1057305                    /usr/lib/jvm/java-8-oracle/jre/lib/ext/jfxrt.jar
7f8639f5a000-7f863a15a000 rw-p 00000000 00:00 0 
7f863a15a000-7f863a35a000 rw-p 00000000 00:00 0 
7f863a35a000-7f863a55a000 rw-p 00000000 00:00 0 
7f863a55a000-7f863a55d000 ---p 00000000 00:00 0 
7f863a55d000-7f863a65b000 rw-p 00000000 00:00 0 
7f863a65b000-7f863a65e000 ---p 00000000 00:00 0 
7f863a65e000-7f863a75c000 rw-p 00000000 00:00 0 
7f863a75c000-7f863a75f000 ---p 00000000 00:00 0 
7f863a75f000-7f863a85d000 rw-p 00000000 00:00 0 
7f863a85d000-7f863a860000 ---p 00000000 00:00 0 
7f863a860000-7f863a95e000 rw-p 00000000 00:00 0 
7f863a95e000-7f863a961000 ---p 00000000 00:00 0 
7f863a961000-7f863ac5f000 rw-p 00000000 00:00 0 
7f863ac5f000-7f863ae5f000 rw-p 00000000 00:00 0 
7f863ae5f000-7f863b05f000 rw-p 00000000 00:00 0 
7f863b05f000-7f863b25f000 rw-p 00000000 00:00 0 
7f863b29e000-7f863b2a0000 r--s 00001000 08:03 1057303                    /usr/lib/jvm/java-8-oracle/jre/lib/ext/dnsns.jar
7f863b2a0000-7f863b2aa000 r--s 00116000 08:03 1057311                    /usr/lib/jvm/java-8-oracle/jre/lib/ext/localedata.jar
7f863b2aa000-7f863b2c5000 r--s 001d4000 08:03 1057307                    /usr/lib/jvm/java-8-oracle/jre/lib/ext/nashorn.jar
7f863b2c5000-7f863b2c6000 r--s 00010000 08:03 1057308                    /usr/lib/jvm/java-8-oracle/jre/lib/ext/zipfs.jar
7f863b2c6000-7f863b2e2000 r--s 00393000 08:03 1057304                    /usr/lib/jvm/java-8-oracle/jre/lib/ext/cldrdata.jar
7f863b2e2000-7f863b2e6000 r--s 0003a000 08:03 1057309                    /usr/lib/jvm/java-8-oracle/jre/lib/ext/sunpkcs11.jar
7f863b2e6000-7f863b2e8000 r--s 00009000 08:03 1057302                    /usr/lib/jvm/java-8-oracle/jre/lib/ext/sunec.jar
7f863b2e8000-7f863b2e9000 r--s 0000a000 08:03 1057306                    /usr/lib/jvm/java-8-oracle/jre/lib/ext/jaccess.jar
7f863b2e9000-7f863b2ee000 r--s 0003f000 08:03 1057312                    /usr/lib/jvm/java-8-oracle/jre/lib/ext/sunjce_provider.jar
7f863b2ee000-7f863b2ff000 r--s 0009b000 08:03 3278220                    /home/dev/.ivy2/cache/scala_2.10/sbt_0.13/org.jetbrains/sbt-structure-extractor/jars/sbt-structure-extractor-2017.2.jar
7f863b2ff000-7f863b302000 ---p 00000000 00:00 0 
7f863b302000-7f863b600000 rw-p 00000000 00:00 0 
7f863b600000-7f863b800000 rw-p 00000000 00:00 0 
7f863b800000-7f863ba00000 rw-p 00000000 00:00 0 
7f863ba00000-7f863bc00000 rw-p 00000000 00:00 0 
7f863bc00000-7f863be00000 rw-p 00000000 00:00 0 
7f863be00000-7f863c000000 rw-p 00000000 00:00 0 
7f863c000000-7f863c021000 rw-p 00000000 00:00 0 
7f863c021000-7f8640000000 ---p 00000000 00:00 0 
7f8640000000-7f8640021000 rw-p 00000000 00:00 0 
7f8640021000-7f8644000000 ---p 00000000 00:00 0 
7f8644000000-7f8646a13000 rw-p 00000000 00:00 0 
7f8646a13000-7f8648000000 ---p 00000000 00:00 0 
7f8648000000-7f8649144000 rw-p 00000000 00:00 0 
7f8649144000-7f864c000000 ---p 00000000 00:00 0 
7f864c000000-7f864c021000 rw-p 00000000 00:00 0 
7f864c021000-7f8650000000 ---p 00000000 00:00 0 
7f8650000000-7f8653b6c000 rw-p 00000000 00:00 0 
7f8653b6c000-7f8654000000 ---p 00000000 00:00 0 
7f8654000000-7f8654021000 rw-p 00000000 00:00 0 
7f8654021000-7f8658000000 ---p 00000000 00:00 0 
7f8658000000-7f8658021000 rw-p 00000000 00:00 0 
7f8658021000-7f865c000000 ---p 00000000 00:00 0 
7f865c000000-7f865c021000 rw-p 00000000 00:00 0 
7f865c021000-7f8660000000 ---p 00000000 00:00 0 
7f8660000000-7f8660021000 rw-p 00000000 00:00 0 
7f8660021000-7f8664000000 ---p 00000000 00:00 0 
7f8664000000-7f8664021000 rw-p 00000000 00:00 0 
7f8664021000-7f8668000000 ---p 00000000 00:00 0 
7f8668000000-7f86682eb000 rw-p 00000000 00:00 0 
7f86682eb000-7f866c000000 ---p 00000000 00:00 0 
7f866c000000-7f866c021000 rw-p 00000000 00:00 0 
7f866c021000-7f8670000000 ---p 00000000 00:00 0 
7f8670000000-7f8670005000 r--s 00084000 08:03 1057229                    /usr/lib/jvm/java-8-oracle/jre/lib/jfr.jar
7f8670005000-7f867000a000 r--s 002f9000 08:03 1057293                    /usr/lib/jvm/java-8-oracle/jre/lib/charsets.jar
7f867000a000-7f867000d000 r--s 0001a000 08:03 1057383                    /usr/lib/jvm/java-8-oracle/jre/lib/jce.jar
7f867000d000-7f867000e000 r--s 00002000 08:03 3278222                    /home/dev/.ivy2/cache/scala_2.10/sbt_0.13/org.jetbrains/sbt-idea-shell/jars/sbt-idea-shell-2017.2.jar
7f867000e000-7f8670011000 ---p 00000000 00:00 0 
7f8670011000-7f867010f000 rw-p 00000000 00:00 0 
7f867010f000-7f8670122000 r--s 00345000 08:03 1057299                    /usr/lib/jvm/java-8-oracle/jre/lib/resources.jar
7f8670122000-7f867019b000 r--s 010f9000 08:03 1050434                    /usr/lib/jvm/java-8-oracle/lib/tools.jar
7f867019b000-7f867039b000 rw-p 00000000 00:00 0 
7f867039b000-7f867039e000 ---p 00000000 00:00 0 
7f867039e000-7f86705d4000 rw-p 00000000 00:00 0 
7f86705d4000-7f86706d2000 r--s 00cd0000 08:03 2127312                    /home/dev/.sbt/boot/scala-2.10.6/lib/scala-compiler.jar
7f86706d2000-7f86706e3000 r-xp 00000000 08:03 1057370                    /usr/lib/jvm/java-8-oracle/jre/lib/amd64/libnio.so
7f86706e3000-7f86708e2000 ---p 00011000 08:03 1057370                    /usr/lib/jvm/java-8-oracle/jre/lib/amd64/libnio.so
7f86708e2000-7f86708e3000 rw-p 00010000 08:03 1057370                    /usr/lib/jvm/java-8-oracle/jre/lib/amd64/libnio.so
7f86708e3000-7f86738e4000 rw-p 00000000 00:00 0 
7f86738e4000-7f86738fa000 r-xp 00000000 08:03 1057367                    /usr/lib/jvm/java-8-oracle/jre/lib/amd64/libnet.so
7f86738fa000-7f8673afa000 ---p 00016000 08:03 1057367                    /usr/lib/jvm/java-8-oracle/jre/lib/amd64/libnet.so
7f8673afa000-7f8673afb000 rw-p 00016000 08:03 1057367                    /usr/lib/jvm/java-8-oracle/jre/lib/amd64/libnet.so
7f8673afb000-7f8673afc000 ---p 00000000 00:00 0 
7f8673afc000-7f8673bfc000 rw-p 00000000 00:00 0 
7f8673bfc000-7f8673bff000 ---p 00000000 00:00 0 
7f8673bff000-7f8673cfd000 rw-p 00000000 00:00 0 
7f8673cfd000-7f8673d00000 ---p 00000000 00:00 0 
7f8673d00000-7f8673dfe000 rw-p 00000000 00:00 0 
7f8673dfe000-7f8673e01000 ---p 00000000 00:00 0 
7f8673e01000-7f8673eff000 rw-p 00000000 00:00 0 
7f8673eff000-7f8673f02000 ---p 00000000 00:00 0 
7f8673f02000-7f8674000000 rw-p 00000000 00:00 0 
7f8674000000-7f867402e000 rw-p 00000000 00:00 0 
7f867402e000-7f8678000000 ---p 00000000 00:00 0 
7f8678000000-7f8678005000 r--s 0009d000 08:03 1057300                    /usr/lib/jvm/java-8-oracle/jre/lib/jsse.jar
7f8678005000-7f8678007000 r--s 0000b000 08:03 2001423                    /home/dev/.sbt/boot/scala-2.10.6/org.scala-sbt/sbt/0.13.15/xsbti/interface-0.13.15.jar
7f8678007000-7f8678008000 r--s 00000000 08:03 1855438                    /home/dev/.sbt/boot/scala-2.10.6/org.scala-sbt/sbt/0.13.15/template-resolver-0.1.jar
7f8678008000-7f867802c000 r--s 001cc000 08:03 1855435                    /home/dev/.sbt/boot/scala-2.10.6/org.scala-sbt/sbt/0.13.15/ivy-0.13.15.jar
7f867802c000-7f867802e000 r--s 00004000 08:03 1855425                    /home/dev/.sbt/boot/scala-2.10.6/org.scala-sbt/sbt/0.13.15/compiler-ivy-integration-0.13.15.jar
7f867802e000-7f8678031000 r--s 0001e000 08:03 1855441                    /home/dev/.sbt/boot/scala-2.10.6/org.scala-sbt/sbt/0.13.15/run-0.13.15.jar
7f8678031000-7f8678033000 r--s 00015000 08:03 1855458                    /home/dev/.sbt/boot/scala-2.10.6/org.scala-sbt/sbt/0.13.15/classfile-0.13.15.jar
7f8678033000-7f8678068000 r--s 002da000 08:03 1855442                    /home/dev/.sbt/boot/scala-2.10.6/org.scala-sbt/sbt/0.13.15/scala-reflect-2.10.6.jar
7f8678068000-7f8678074000 r--s 000a4000 08:03 1855446                    /home/dev/.sbt/boot/scala-2.10.6/org.scala-sbt/sbt/0.13.15/quasiquotes_2.10-2.0.1.jar
7f8678074000-7f867807c000 r--s 00058000 08:03 1855459                    /home/dev/.sbt/boot/scala-2.10.6/org.scala-sbt/sbt/0.13.15/completion-0.13.15.jar
7f867807c000-7f8678080000 r--s 0001c000 08:03 1855461                    /home/dev/.sbt/boot/scala-2.10.6/org.scala-sbt/sbt/0.13.15/compiler-integration-0.13.15.jar
7f8678080000-7f867808a000 r--s 00070000 08:03 1855460                    /home/dev/.sbt/boot/scala-2.10.6/org.scala-sbt/sbt/0.13.15/incremental-compiler-0.13.15.jar
7f867808a000-7f867808e000 r--s 0001d000 08:03 1855437                    /home/dev/.sbt/boot/scala-2.10.6/org.scala-sbt/sbt/0.13.15/tasks-0.13.15.jar
7f867808e000-7f8678090000 r--s 00014000 08:03 1855428                    /home/dev/.sbt/boot/scala-2.10.6/org.scala-sbt/sbt/0.13.15/classpath-0.13.15.jar
7f8678090000-7f8678094000 r--s 0001b000 08:03 1855456                    /home/dev/.sbt/boot/scala-2.10.6/org.scala-sbt/sbt/0.13.15/process-0.13.15.jar
7f8678094000-7f8678095000 r--s 00002000 08:03 1855422                    /home/dev/.sbt/boot/scala-2.10.6/org.scala-sbt/sbt/0.13.15/launcher-interface-1.0.1.jar
7f8678095000-7f867809b000 r--s 00040000 08:03 1855454                    /home/dev/.sbt/boot/scala-2.10.6/org.scala-sbt/sbt/0.13.15/api-0.13.15.jar
7f867809b000-7f867809d000 r--s 00001000 08:03 1855443                    /home/dev/.sbt/boot/scala-2.10.6/org.scala-sbt/sbt/0.13.15/cross-0.13.15.jar
7f867809d000-7f867809f000 r--s 0000b000 08:03 1855451                    /home/dev/.sbt/boot/scala-2.10.6/org.scala-sbt/sbt/0.13.15/tracking-0.13.15.jar
7f867809f000-7f86780a9000 r--s 00085000 08:03 1855464                    /home/dev/.sbt/boot/scala-2.10.6/org.scala-sbt/sbt/0.13.15/json4s-core_2.10-3.2.10.jar
7f86780a9000-7f86780be000 r--s 00101000 08:03 1855431                    /home/dev/.sbt/boot/scala-2.10.6/org.scala-sbt/sbt/0.13.15/ivy-2.3.0-sbt-48dd0744422128446aee9ac31aa356ee203cc9f4.jar
7f86780be000-7f86780c6000 r--s 00060000 08:03 1855418                    /home/dev/.sbt/boot/scala-2.10.6/org.scala-sbt/sbt/0.13.15/collections-0.13.15.jar
7f86780c6000-7f86780c9000 r--s 00018000 08:03 1855448                    /home/dev/.sbt/boot/scala-2.10.6/org.scala-sbt/sbt/0.13.15/logging-0.13.15.jar
7f86780c9000-7f86780ce000 r--s 00039000 08:03 1855434                    /home/dev/.sbt/boot/scala-2.10.6/org.scala-sbt/sbt/0.13.15/command-0.13.15.jar
7f86780ce000-7f86780d4000 r--s 00038000 08:03 1855462                    /home/dev/.sbt/boot/scala-2.10.6/org.scala-sbt/sbt/0.13.15/compile-0.13.15.jar
7f86780d4000-7f86780d6000 r--s 00017000 08:03 1855429                    /home/dev/.sbt/boot/scala-2.10.6/org.scala-sbt/sbt/0.13.15/testing-0.13.15.jar
7f86780d6000-7f86780db000 r--s 00025000 08:03 1855420                    /home/dev/.sbt/boot/scala-2.10.6/org.scala-sbt/sbt/0.13.15/persist-0.13.15.jar
7f86780db000-7f86780dd000 r--s 00014000 08:03 1855440                    /home/dev/.sbt/boot/scala-2.10.6/org.scala-sbt/sbt/0.13.15/apply-macro-0.13.15.jar
7f86780dd000-7f86780e4000 r--s 0003f000 08:03 1855445                    /home/dev/.sbt/boot/scala-2.10.6/org.scala-sbt/sbt/0.13.15/io-0.13.15.jar
7f86780e4000-7f86780e8000 r--s 0003b000 08:03 1855433                    /home/dev/.sbt/boot/scala-2.10.6/org.scala-sbt/sbt/0.13.15/jsch-0.1.50.jar
7f86780e8000-7f86780ef000 r--s 0004b000 08:03 1855436                    /home/dev/.sbt/boot/scala-2.10.6/org.scala-sbt/sbt/0.13.15/serialization_2.10-0.1.2.jar
7f86780ef000-7f86780f2000 ---p 00000000 00:00 0 
7f86780f2000-7f86781f0000 rw-p 00000000 00:00 0 
7f86781f0000-7f86781f3000 ---p 00000000 00:00 0 
7f86781f3000-7f86782f1000 rw-p 00000000 00:00 0 
7f86782f1000-7f86782f5000 r-xp 00000000 08:03 1057336                    /usr/lib/jvm/java-8-oracle/jre/lib/amd64/libdt_socket.so
7f86782f5000-7f86784f4000 ---p 00004000 08:03 1057336                    /usr/lib/jvm/java-8-oracle/jre/lib/amd64/libdt_socket.so
7f86784f4000-7f86784f5000 rw-p 00003000 08:03 1057336                    /usr/lib/jvm/java-8-oracle/jre/lib/amd64/libdt_socket.so
7f86784f5000-7f86784f8000 ---p 00000000 00:00 0 
7f86784f8000-7f86785f6000 rw-p 00000000 00:00 0 
7f86785f6000-7f86785f9000 ---p 00000000 00:00 0 
7f86785f9000-7f86786f7000 rw-p 00000000 00:00 0 
7f86786f7000-7f86786fa000 ---p 00000000 00:00 0 
7f86786fa000-7f86787f8000 rw-p 00000000 00:00 0 
7f86787f8000-7f86787f9000 ---p 00000000 00:00 0 
7f86787f9000-7f867c000000 rw-p 00000000 00:00 0 
7f867c000000-7f867c021000 rw-p 00000000 00:00 0 
7f867c021000-7f8680000000 ---p 00000000 00:00 0 
7f8680000000-7f8680003000 r--s 0001e000 08:03 1855430                    /home/dev/.sbt/boot/scala-2.10.6/org.scala-sbt/sbt/0.13.15/task-system-0.13.15.jar
7f8680003000-7f8680004000 r--s 00005000 08:03 1855427                    /home/dev/.sbt/boot/scala-2.10.6/org.scala-sbt/sbt/0.13.15/test-agent-0.13.15.jar
7f8680004000-7f8680006000 r--s 00002000 08:03 1855424                    /home/dev/.sbt/boot/scala-2.10.6/org.scala-sbt/sbt/0.13.15/control-0.13.15.jar
7f8680006000-7f8680008000 r--s 00007000 08:03 1855452                    /home/dev/.sbt/boot/scala-2.10.6/org.scala-sbt/sbt/0.13.15/paranamer-2.6.jar
7f8680008000-7f868000d000 r--s 00038000 08:03 1855449                    /home/dev/.sbt/boot/scala-2.10.6/org.scala-sbt/sbt/0.13.15/compiler-interface-0.13.15.jar
7f868000d000-7f8680016000 r--s 0006f000 08:03 1855463                    /home/dev/.sbt/boot/scala-2.10.6/org.scala-sbt/sbt/0.13.15/actions-0.13.15.jar
7f8680016000-7f8680021000 r--s 0009b000 08:03 1855455                    /home/dev/.sbt/boot/scala-2.10.6/org.scala-sbt/sbt/0.13.15/main-settings-0.13.15.jar
7f8680021000-7f8680051000 r--s 0026a000 08:03 1855465                    /home/dev/.sbt/boot/scala-2.10.6/org.scala-sbt/sbt/0.13.15/main-0.13.15.jar
7f8680051000-7f8680086000 r--s 002da000 08:03 2127313                    /home/dev/.sbt/boot/scala-2.10.6/lib/scala-reflect.jar
7f8680086000-7f86800f9000 r--s 0065b000 08:03 2127316                    /home/dev/.sbt/boot/scala-2.10.6/lib/scala-library.jar
7f86800f9000-7f8681000000 rw-p 00000000 00:00 0 
7f8681000000-7f8681e90000 rwxp 00000000 00:00 0 
7f8681e90000-7f8690000000 ---p 00000000 00:00 0 
7f8690000000-7f8692509000 rw-p 00000000 00:00 0 
7f8692509000-7f8694000000 ---p 00000000 00:00 0 
7f8694000000-7f8694002000 r--s 00002000 08:03 1855453                    /home/dev/.sbt/boot/scala-2.10.6/org.scala-sbt/sbt/0.13.15/test-interface-1.0.jar
7f8694002000-7f8694004000 r--s 00012000 08:03 1855457                    /home/dev/.sbt/boot/scala-2.10.6/org.scala-sbt/sbt/0.13.15/jawn-parser_2.10-0.6.0.jar
7f8694004000-7f8694005000 r--s 0000c000 08:03 1855432                    /home/dev/.sbt/boot/scala-2.10.6/org.scala-sbt/sbt/0.13.15/sbt-0.13.15.jar
7f8694005000-7f8694021000 r--s 0010e000 08:03 659544                     /home/dev/.IntelliJIdea2018.1/config/plugins/Scala/launcher/sbt-launch.jar
7f8694021000-7f8694122000 rw-p 00000000 00:00 0 
7f8694122000-7f86942fc000 r--s 03d68000 08:03 1057295                    /usr/lib/jvm/java-8-oracle/jre/lib/rt.jar
7f86942fc000-7f8694672000 rw-p 00000000 00:00 0 
7f8694672000-7f8694673000 ---p 00000000 00:00 0 
7f8694673000-7f8694773000 rw-p 00000000 00:00 0 
7f8694773000-7f8694774000 ---p 00000000 00:00 0 
7f8694774000-7f8694874000 rw-p 00000000 00:00 0 
7f8694874000-7f8694875000 ---p 00000000 00:00 0 
7f8694875000-7f8694975000 rw-p 00000000 00:00 0 
7f8694975000-7f8694976000 ---p 00000000 00:00 0 
7f8694976000-7f8694aa0000 rw-p 00000000 00:00 0 
7f8694aa0000-7f8694c76000 ---p 00000000 00:00 0 
7f8694c76000-7f8694ca0000 rw-p 00000000 00:00 0 
7f8694ca0000-7f8694e76000 ---p 00000000 00:00 0 
7f8694e76000-7f8694eb4000 rw-p 00000000 00:00 0 
7f8694eb4000-7f8694f76000 ---p 00000000 00:00 0 
7f8694f76000-7f8694fb2000 rw-p 00000000 00:00 0 
7f8694fb2000-7f8695337000 ---p 00000000 00:00 0 
7f8695337000-7f8695352000 r-xp 00000000 08:03 1057363                    /usr/lib/jvm/java-8-oracle/jre/lib/amd64/libzip.so
7f8695352000-7f8695552000 ---p 0001b000 08:03 1057363                    /usr/lib/jvm/java-8-oracle/jre/lib/amd64/libzip.so
7f8695552000-7f8695553000 rw-p 0001b000 08:03 1057363                    /usr/lib/jvm/java-8-oracle/jre/lib/amd64/libzip.so
7f8695553000-7f869555e000 r-xp 00000000 08:03 529488                     /lib/x86_64-linux-gnu/libnss_files-2.23.so
7f869555e000-7f869575d000 ---p 0000b000 08:03 529488                     /lib/x86_64-linux-gnu/libnss_files-2.23.so
7f869575d000-7f869575e000 r--p 0000a000 08:03 529488                     /lib/x86_64-linux-gnu/libnss_files-2.23.so
7f869575e000-7f869575f000 rw-p 0000b000 08:03 529488                     /lib/x86_64-linux-gnu/libnss_files-2.23.so
7f869575f000-7f8695765000 rw-p 00000000 00:00 0 
7f8695765000-7f8695770000 r-xp 00000000 08:03 529498                     /lib/x86_64-linux-gnu/libnss_nis-2.23.so
7f8695770000-7f869596f000 ---p 0000b000 08:03 529498                     /lib/x86_64-linux-gnu/libnss_nis-2.23.so
7f869596f000-7f8695970000 r--p 0000a000 08:03 529498                     /lib/x86_64-linux-gnu/libnss_nis-2.23.so
7f8695970000-7f8695971000 rw-p 0000b000 08:03 529498                     /lib/x86_64-linux-gnu/libnss_nis-2.23.so
7f8695971000-7f8695987000 r-xp 00000000 08:03 529482                     /lib/x86_64-linux-gnu/libnsl-2.23.so
7f8695987000-7f8695b86000 ---p 00016000 08:03 529482                     /lib/x86_64-linux-gnu/libnsl-2.23.so
7f8695b86000-7f8695b87000 r--p 00015000 08:03 529482                     /lib/x86_64-linux-gnu/libnsl-2.23.so
7f8695b87000-7f8695b88000 rw-p 00016000 08:03 529482                     /lib/x86_64-linux-gnu/libnsl-2.23.so
7f8695b88000-7f8695b8a000 rw-p 00000000 00:00 0 
7f8695b8a000-7f8695b92000 r-xp 00000000 08:03 529484                     /lib/x86_64-linux-gnu/libnss_compat-2.23.so
7f8695b92000-7f8695d91000 ---p 00008000 08:03 529484                     /lib/x86_64-linux-gnu/libnss_compat-2.23.so
7f8695d91000-7f8695d92000 r--p 00007000 08:03 529484                     /lib/x86_64-linux-gnu/libnss_compat-2.23.so
7f8695d92000-7f8695d93000 rw-p 00008000 08:03 529484                     /lib/x86_64-linux-gnu/libnss_compat-2.23.so
7f8695d93000-7f8696752000 r--p 00000000 08:03 925341                     /usr/lib/locale/locale-archive
7f8696752000-7f8696754000 r-xp 00000000 08:03 1057338                    /usr/lib/jvm/java-8-oracle/jre/lib/amd64/libnpt.so
7f8696754000-7f8696954000 ---p 00002000 08:03 1057338                    /usr/lib/jvm/java-8-oracle/jre/lib/amd64/libnpt.so
7f8696954000-7f8696955000 rw-p 00002000 08:03 1057338                    /usr/lib/jvm/java-8-oracle/jre/lib/amd64/libnpt.so
7f8696955000-7f869698f000 r-xp 00000000 08:03 1057350                    /usr/lib/jvm/java-8-oracle/jre/lib/amd64/libjdwp.so
7f869698f000-7f8696b8e000 ---p 0003a000 08:03 1057350                    /usr/lib/jvm/java-8-oracle/jre/lib/amd64/libjdwp.so
7f8696b8e000-7f8696b8f000 rw-p 00039000 08:03 1057350                    /usr/lib/jvm/java-8-oracle/jre/lib/amd64/libjdwp.so
7f8696b8f000-7f8696b90000 rw-p 00000000 00:00 0 
7f8696b90000-7f8696bbb000 r-xp 00000000 08:03 1057357                    /usr/lib/jvm/java-8-oracle/jre/lib/amd64/libjava.so
7f8696bbb000-7f8696dba000 ---p 0002b000 08:03 1057357                    /usr/lib/jvm/java-8-oracle/jre/lib/amd64/libjava.so
7f8696dba000-7f8696dbc000 rw-p 0002a000 08:03 1057357                    /usr/lib/jvm/java-8-oracle/jre/lib/amd64/libjava.so
7f8696dbc000-7f8696dc9000 r-xp 00000000 08:03 1057362                    /usr/lib/jvm/java-8-oracle/jre/lib/amd64/libverify.so
7f8696dc9000-7f8696fc9000 ---p 0000d000 08:03 1057362                    /usr/lib/jvm/java-8-oracle/jre/lib/amd64/libverify.so
7f8696fc9000-7f8696fcb000 rw-p 0000d000 08:03 1057362                    /usr/lib/jvm/java-8-oracle/jre/lib/amd64/libverify.so
7f8696fcb000-7f8696fd2000 r-xp 00000000 08:03 529543                     /lib/x86_64-linux-gnu/librt-2.23.so
7f8696fd2000-7f86971d1000 ---p 00007000 08:03 529543                     /lib/x86_64-linux-gnu/librt-2.23.so
7f86971d1000-7f86971d2000 r--p 00006000 08:03 529543                     /lib/x86_64-linux-gnu/librt-2.23.so
7f86971d2000-7f86971d3000 rw-p 00007000 08:03 529543                     /lib/x86_64-linux-gnu/librt-2.23.so
7f86971d3000-7f86972db000 r-xp 00000000 08:03 529459                     /lib/x86_64-linux-gnu/libm-2.23.so
7f86972db000-7f86974da000 ---p 00108000 08:03 529459                     /lib/x86_64-linux-gnu/libm-2.23.so
7f86974da000-7f86974db000 r--p 00107000 08:03 529459                     /lib/x86_64-linux-gnu/libm-2.23.so
7f86974db000-7f86974dc000 rw-p 00108000 08:03 529459                     /lib/x86_64-linux-gnu/libm-2.23.so
7f86974dc000-7f86981b5000 r-xp 00000000 08:03 1456508                    /usr/lib/jvm/java-8-oracle/jre/lib/amd64/server/libjvm.so
7f86981b5000-7f86983b4000 ---p 00cd9000 08:03 1456508                    /usr/lib/jvm/java-8-oracle/jre/lib/amd64/server/libjvm.so
7f86983b4000-7f869848e000 rw-p 00cd8000 08:03 1456508                    /usr/lib/jvm/java-8-oracle/jre/lib/amd64/server/libjvm.so
7f869848e000-7f86984d9000 rw-p 00000000 00:00 0 
7f86984d9000-7f8698699000 r-xp 00000000 08:03 529389                     /lib/x86_64-linux-gnu/libc-2.23.so
7f8698699000-7f8698899000 ---p 001c0000 08:03 529389                     /lib/x86_64-linux-gnu/libc-2.23.so
7f8698899000-7f869889d000 r--p 001c0000 08:03 529389                     /lib/x86_64-linux-gnu/libc-2.23.so
7f869889d000-7f869889f000 rw-p 001c4000 08:03 529389                     /lib/x86_64-linux-gnu/libc-2.23.so
7f869889f000-7f86988a3000 rw-p 00000000 00:00 0 
7f86988a3000-7f86988a6000 r-xp 00000000 08:03 529413                     /lib/x86_64-linux-gnu/libdl-2.23.so
7f86988a6000-7f8698aa5000 ---p 00003000 08:03 529413                     /lib/x86_64-linux-gnu/libdl-2.23.so
7f8698aa5000-7f8698aa6000 r--p 00002000 08:03 529413                     /lib/x86_64-linux-gnu/libdl-2.23.so
7f8698aa6000-7f8698aa7000 rw-p 00003000 08:03 529413                     /lib/x86_64-linux-gnu/libdl-2.23.so
7f8698aa7000-7f8698abd000 r-xp 00000000 08:03 1056450                    /usr/lib/jvm/java-8-oracle/lib/amd64/jli/libjli.so
7f8698abd000-7f8698cbc000 ---p 00016000 08:03 1056450                    /usr/lib/jvm/java-8-oracle/lib/amd64/jli/libjli.so
7f8698cbc000-7f8698cbd000 rw-p 00015000 08:03 1056450                    /usr/lib/jvm/java-8-oracle/lib/amd64/jli/libjli.so
7f8698cbd000-7f8698cd5000 r-xp 00000000 08:03 529535                     /lib/x86_64-linux-gnu/libpthread-2.23.so
7f8698cd5000-7f8698ed4000 ---p 00018000 08:03 529535                     /lib/x86_64-linux-gnu/libpthread-2.23.so
7f8698ed4000-7f8698ed5000 r--p 00017000 08:03 529535                     /lib/x86_64-linux-gnu/libpthread-2.23.so
7f8698ed5000-7f8698ed6000 rw-p 00018000 08:03 529535                     /lib/x86_64-linux-gnu/libpthread-2.23.so
7f8698ed6000-7f8698eda000 rw-p 00000000 00:00 0 
7f8698eda000-7f8698f00000 r-xp 00000000 08:03 529361                     /lib/x86_64-linux-gnu/ld-2.23.so
7f8698f00000-7f8698f02000 r--s 00013000 08:03 1855439                    /home/dev/.sbt/boot/scala-2.10.6/org.scala-sbt/sbt/0.13.15/json4s-ast_2.10-3.2.10.jar
7f8698f02000-7f8698f06000 r--s 0003e000 08:03 1855450                    /home/dev/.sbt/boot/scala-2.10.6/org.scala-sbt/sbt/0.13.15/jline-2.14.3.jar
7f8698f06000-7f8698f08000 r--s 00006000 08:03 1855419                    /home/dev/.sbt/boot/scala-2.10.6/org.scala-sbt/sbt/0.13.15/relation-0.13.15.jar
7f8698f08000-7f8698f0c000 r--s 00022000 08:03 1855423                    /home/dev/.sbt/boot/scala-2.10.6/org.scala-sbt/sbt/0.13.15/sbinary_2.10-0.4.2.jar
7f8698f0c000-7f8698f1a000 r--s 000bc000 08:03 1855426                    /home/dev/.sbt/boot/scala-2.10.6/org.scala-sbt/sbt/0.13.15/scala-pickling_2.10-0.10.1.jar
7f8698f1a000-7f8698fe2000 rw-p 00000000 00:00 0 
7f8698fe2000-7f8698fe5000 ---p 00000000 00:00 0 
7f8698fe5000-7f86990e8000 rw-p 00000000 00:00 0 
7f86990e8000-7f86990e9000 r--s 00001000 08:03 1855421                    /home/dev/.sbt/boot/scala-2.10.6/org.scala-sbt/sbt/0.13.15/json4s-support_2.10-0.6.0.jar
7f86990e9000-7f86990eb000 r--s 0000e000 08:03 1855447                    /home/dev/.sbt/boot/scala-2.10.6/org.scala-sbt/sbt/0.13.15/logic-0.13.15.jar
7f86990eb000-7f86990ee000 r--s 0001a000 08:03 1855444                    /home/dev/.sbt/boot/scala-2.10.6/org.scala-sbt/sbt/0.13.15/cache-0.13.15.jar
7f86990ee000-7f86990f2000 r--s 00025000 08:03 2127315                    /home/dev/.sbt/boot/scala-2.10.6/lib/jline.jar
7f86990f2000-7f86990f5000 r--s 00018000 08:03 2127314                    /home/dev/.sbt/boot/scala-2.10.6/lib/jansi.jar
7f86990f5000-7f86990fd000 rw-s 00000000 08:03 4063938                    /tmp/hsperfdata_dev/14542
7f86990fd000-7f86990fe000 rw-p 00000000 00:00 0 
7f86990fe000-7f86990ff000 ---p 00000000 00:00 0 
7f86990ff000-7f8699100000 r--p 00025000 08:03 529361                     /lib/x86_64-linux-gnu/ld-2.23.so
7f8699100000-7f8699101000 rw-p 00026000 08:03 529361                     /lib/x86_64-linux-gnu/ld-2.23.so
7f8699101000-7f8699102000 rw-p 00000000 00:00 0 
7ffe316cb000-7ffe316ec000 rw-p 00000000 00:00 0                          [stack]
7ffe317da000-7ffe317dd000 r--p 00000000 00:00 0                          [vvar]
7ffe317dd000-7ffe317df000 r-xp 00000000 00:00 0                          [vdso]
ffffffffff600000-ffffffffff601000 r-xp 00000000 00:00 0                  [vsyscall]

VM Arguments:
jvm_args: -agentlib:jdwp=transport=dt_socket,address=localhost:33273,suspend=n,server=y -Xdebug -Xmx1536M -Didea.managed=true -Dfile.encoding=UTF-8 -Didea.runid=2017.2 
java_command: /home/dev/.IntelliJIdea2018.1/config/plugins/Scala/launcher/sbt-launch.jar idea-shell
java_class_path (initial): /home/dev/.IntelliJIdea2018.1/config/plugins/Scala/launcher/sbt-launch.jar
Launcher Type: SUN_STANDARD

Environment Variables:
JAVA_HOME=/usr/lib/jvm/java-8-oracle
PATH=/home/dev/bin:/home/dev/.local/bin:/usr/local/sbin:/usr/local/bin:/usr/sbin:/usr/bin:/sbin:/bin:/usr/games:/usr/local/games:/snap/bin:/usr/lib/jvm/java-8-oracle/bin:/usr/lib/jvm/java-8-oracle/db/bin:/usr/lib/jvm/java-8-oracle/jre/bin
SHELL=/bin/bash
DISPLAY=:0

Signal Handlers:
SIGSEGV: [libjvm.so+0xad0890], sa_mask[0]=11111111011111111101111111111110, sa_flags=SA_RESTART|SA_SIGINFO
SIGBUS: [libjvm.so+0xad0890], sa_mask[0]=11111111011111111101111111111110, sa_flags=SA_RESTART|SA_SIGINFO
SIGFPE: [libjvm.so+0x928640], sa_mask[0]=11111111011111111101111111111110, sa_flags=SA_RESTART|SA_SIGINFO
SIGPIPE: [libjvm.so+0x928640], sa_mask[0]=11111111011111111101111111111110, sa_flags=SA_RESTART|SA_SIGINFO
SIGXFSZ: [libjvm.so+0x928640], sa_mask[0]=11111111011111111101111111111110, sa_flags=SA_RESTART|SA_SIGINFO
SIGILL: [libjvm.so+0x928640], sa_mask[0]=11111111011111111101111111111110, sa_flags=SA_RESTART|SA_SIGINFO
SIGUSR1: SIG_DFL, sa_mask[0]=00000000000000000000000000000000, sa_flags=none
SIGUSR2: [libjvm.so+0x929ea0], sa_mask[0]=00100000000000000000000000000000, sa_flags=SA_RESTART|SA_SIGINFO
SIGHUP: [libjvm.so+0x92b2a0], sa_mask[0]=11111111011111111101111111111110, sa_flags=SA_RESTART|SA_SIGINFO
SIGINT: [libjvm.so+0x92b2a0], sa_mask[0]=11111111011111111101111111111110, sa_flags=SA_RESTART|SA_SIGINFO
SIGTERM: [libjvm.so+0x92b2a0], sa_mask[0]=11111111011111111101111111111110, sa_flags=SA_RESTART|SA_SIGINFO
SIGQUIT: [libjvm.so+0x92b2a0], sa_mask[0]=11111111011111111101111111111110, sa_flags=SA_RESTART|SA_SIGINFO


---------------  S Y S T E M  ---------------

OS:DISTRIB_ID=Ubuntu
DISTRIB_RELEASE=16.04
DISTRIB_CODENAME=xenial
DISTRIB_DESCRIPTION="Ubuntu 16.04.4 LTS"

uname:Linux 4.13.0-45-generic #50~16.04.1-Ubuntu SMP Wed May 30 11:18:27 UTC 2018 x86_64
libc:glibc 2.23 NPTL 2.23 
rlimit: STACK 8192k, CORE 0k, NPROC 31289, NOFILE 1048576, AS infinity
load average:11.58 3.73 2.16

/proc/meminfo:
MemTotal:        8063108 kB
MemFree:          103160 kB
MemAvailable:          0 kB
Buffers:             288 kB
Cached:           461792 kB
SwapCached:            0 kB
Active:          6124532 kB
Inactive:         453204 kB
Active(anon):    6118388 kB
Inactive(anon):   446048 kB
Active(file):       6144 kB
Inactive(file):     7156 kB
Unevictable:          80 kB
Mlocked:              80 kB
SwapTotal:             0 kB
SwapFree:              0 kB
Dirty:                76 kB
Writeback:             0 kB
AnonPages:       6116308 kB
Mapped:          1193620 kB
Shmem:            448208 kB
Slab:             124116 kB
SReclaimable:      44940 kB
SUnreclaim:        79176 kB
KernelStack:       21600 kB
PageTables:       103352 kB
NFS_Unstable:          0 kB
Bounce:                0 kB
WritebackTmp:          0 kB
CommitLimit:     4031552 kB
Committed_AS:   19627484 kB
VmallocTotal:   34359738367 kB
VmallocUsed:           0 kB
VmallocChunk:          0 kB
HardwareCorrupted:     0 kB
AnonHugePages:         0 kB
ShmemHugePages:        0 kB
ShmemPmdMapped:        0 kB
CmaTotal:              0 kB
CmaFree:               0 kB
HugePages_Total:       0
HugePages_Free:        0
HugePages_Rsvd:        0
HugePages_Surp:        0
Hugepagesize:       2048 kB
DirectMap4k:      421376 kB
DirectMap2M:     7862272 kB
DirectMap1G:           0 kB


CPU:total 4 (initial active 4) (2 cores per cpu, 2 threads per core) family 6 model 69 stepping 1, cmov, cx8, fxsr, mmx, sse, sse2, sse3, ssse3, sse4.1, sse4.2, popcnt, avx, avx2, aes, clmul, erms, lzcnt, ht, tsc, tscinvbit, bmi1, bmi2

/proc/cpuinfo:
processor	: 0
vendor_id	: GenuineIntel
cpu family	: 6
model		: 69
model name	: Intel(R) Core(TM) i5-4300U CPU @ 1.90GHz
stepping	: 1
microcode	: 0x23
cpu MHz		: 2593.832
cache size	: 3072 KB
physical id	: 0
siblings	: 4
core id		: 0
cpu cores	: 2
apicid		: 0
initial apicid	: 0
fpu		: yes
fpu_exception	: yes
cpuid level	: 13
wp		: yes
flags		: fpu vme de pse tsc msr pae mce cx8 apic sep mtrr pge mca cmov pat pse36 clflush dts acpi mmx fxsr sse sse2 ss ht tm pbe syscall nx pdpe1gb rdtscp lm constant_tsc arch_perfmon pebs bts rep_good nopl xtopology nonstop_tsc cpuid aperfmperf pni pclmulqdq dtes64 monitor ds_cpl vmx smx est tm2 ssse3 sdbg fma cx16 xtpr pdcm pcid sse4_1 sse4_2 x2apic movbe popcnt tsc_deadline_timer aes xsave avx f16c rdrand lahf_lm abm cpuid_fault epb invpcid_single pti retpoline spec_ctrl tpr_shadow vnmi flexpriority ept vpid fsgsbase tsc_adjust bmi1 avx2 smep bmi2 erms invpcid xsaveopt dtherm ida arat pln pts
bugs		: cpu_meltdown spectre_v1 spectre_v2 spec_store_bypass
bogomips	: 4988.13
clflush size	: 64
cache_alignment	: 64
address sizes	: 39 bits physical, 48 bits virtual
power management:

processor	: 1
vendor_id	: GenuineIntel
cpu family	: 6
model		: 69
model name	: Intel(R) Core(TM) i5-4300U CPU @ 1.90GHz
stepping	: 1
microcode	: 0x23
cpu MHz		: 2593.831
cache size	: 3072 KB
physical id	: 0
siblings	: 4
core id		: 0
cpu cores	: 2
apicid		: 1
initial apicid	: 1
fpu		: yes
fpu_exception	: yes
cpuid level	: 13
wp		: yes
flags		: fpu vme de pse tsc msr pae mce cx8 apic sep mtrr pge mca cmov pat pse36 clflush dts acpi mmx fxsr sse sse2 ss ht tm pbe syscall nx pdpe1gb rdtscp lm constant_tsc arch_perfmon pebs bts rep_good nopl xtopology nonstop_tsc cpuid aperfmperf pni pclmulqdq dtes64 monitor ds_cpl vmx smx est tm2 ssse3 sdbg fma cx16 xtpr pdcm pcid sse4_1 sse4_2 x2apic movbe popcnt tsc_deadline_timer aes xsave avx f16c rdrand lahf_lm abm cpuid_fault epb invpcid_single pti retpoline spec_ctrl tpr_shadow vnmi flexpriority ept vpid fsgsbase tsc_adjust bmi1 avx2 smep bmi2 erms invpcid xsaveopt dtherm ida arat pln pts
bugs		: cpu_meltdown spectre_v1 spectre_v2 spec_store_bypass
bogomips	: 4988.13
clflush size	: 64
cache_alignment	: 64
address sizes	: 39 bits physical, 48 bits virtual
power management:

processor	: 2
vendor_id	: GenuineIntel
cpu family	: 6
model		: 69
model name	: Intel(R) Core(TM) i5-4300U CPU @ 1.90GHz
stepping	: 1
microcode	: 0x23
cpu MHz		: 2593.831
cache size	: 3072 KB
physical id	: 0
siblings	: 4
core id		: 1
cpu cores	: 2
apicid		: 2
initial apicid	: 2
fpu		: yes
fpu_exception	: yes
cpuid level	: 13
wp		: yes
flags		: fpu vme de pse tsc msr pae mce cx8 apic sep mtrr pge mca cmov pat pse36 clflush dts acpi mmx fxsr sse sse2 ss ht tm pbe syscall nx pdpe1gb rdtscp lm constant_tsc arch_perfmon pebs bts rep_good nopl xtopology nonstop_tsc cpuid aperfmperf pni pclmulqdq dtes64 monitor ds_cpl vmx smx est tm2 ssse3 sdbg fma cx16 xtpr pdcm pcid sse4_1 sse4_2 x2apic movbe popcnt tsc_deadline_timer aes xsave avx f16c rdrand lahf_lm abm cpuid_fault epb invpcid_single pti retpoline spec_ctrl tpr_shadow vnmi flexpriority ept vpid fsgsbase tsc_adjust bmi1 avx2 smep bmi2 erms invpcid xsaveopt dtherm ida arat pln pts
bugs		: cpu_meltdown spectre_v1 spectre_v2 spec_store_bypass
bogomips	: 4988.13
clflush size	: 64
cache_alignment	: 64
address sizes	: 39 bits physical, 48 bits virtual
power management:

processor	: 3
vendor_id	: GenuineIntel
cpu family	: 6
model		: 69
model name	: Intel(R) Core(TM) i5-4300U CPU @ 1.90GHz
stepping	: 1
microcode	: 0x23
cpu MHz		: 2593.832
cache size	: 3072 KB
physical id	: 0
siblings	: 4
core id		: 1
cpu cores	: 2
apicid		: 3
initial apicid	: 3
fpu		: yes
fpu_exception	: yes
cpuid level	: 13
wp		: yes
flags		: fpu vme de pse tsc msr pae mce cx8 apic sep mtrr pge mca cmov pat pse36 clflush dts acpi mmx fxsr sse sse2 ss ht tm pbe syscall nx pdpe1gb rdtscp lm constant_tsc arch_perfmon pebs bts rep_good nopl xtopology nonstop_tsc cpuid aperfmperf pni pclmulqdq dtes64 monitor ds_cpl vmx smx est tm2 ssse3 sdbg fma cx16 xtpr pdcm pcid sse4_1 sse4_2 x2apic movbe popcnt tsc_deadline_timer aes xsave avx f16c rdrand lahf_lm abm cpuid_fault epb invpcid_single pti retpoline spec_ctrl tpr_shadow vnmi flexpriority ept vpid fsgsbase tsc_adjust bmi1 avx2 smep bmi2 erms invpcid xsaveopt dtherm ida arat pln pts
bugs		: cpu_meltdown spectre_v1 spectre_v2 spec_store_bypass
bogomips	: 4988.13
clflush size	: 64
cache_alignment	: 64
address sizes	: 39 bits physical, 48 bits virtual
power management:



Memory: 4k page, physical 8063108k(102680k free), swap 0k(0k free)

vm_info: Java HotSpot(TM) 64-Bit Server VM (25.171-b11) for linux-amd64 JRE (1.8.0_171-b11), built on Mar 28 2018 17:07:08 by "java_re" with gcc 4.3.0 20080428 (Red Hat 4.3.0-8)

time: Fri Jul 13 16:43:55 2018
elapsed time: 42 seconds (0d 0h 0m 42s)

